PCBNEW-LibModule-V1  
# encoding utf-8
Units mm
$INDEX
QFN-32_UH
$EndINDEX
$MODULE QFN-32_UH
Po 0 0 0 15 00000000 00000000 ~~
Li QFN-32_UH
Cd 
Sc 00000000
At SMD
Op 0 0 0
.SolderMask 0
.SolderPaste 0
T0 -1.80502 -3.76025 0.315418 0.315418 0 0.05 N V 21 "QFN-32_UH"
T1 -1.60404 3.75865 0.315284 0.315284 0 0.05 N V 21 "VAL**"
DS -2.2352 -2.667 -2.667 -2.667 0.1524 21
DS 2.667 -2.2352 2.667 -2.667 0.1524 21
DS 2.2352 2.667 2.667 2.667 0.1524 21
DS -2.667 2.667 -2.2352 2.667 0.1524 21
DS 2.667 2.667 2.667 2.2352 0.1524 21
DS 2.667 -2.667 2.2352 -2.667 0.1524 21
DS -2.667 -2.667 -2.667 -2.2352 0.1524 21
DS -2.667 2.2352 -2.667 2.667 0.1524 21
DP 0 0 0 0 4 0.0254 19
Dl -1.675 -1.675
Dl -1.675 -0.1
Dl -0.1 -0.1
Dl -0.1 -1.675
DP 0 0 0 0 4 0.0254 19
Dl -1.675 0.1
Dl -1.675 1.675
Dl -0.1 1.675
Dl -0.1 0.1
DP 0 0 0 0 4 0.0254 19
Dl 0.1 -1.675
Dl 0.1 -0.1
Dl 1.675 -0.1
Dl 1.675 -1.675
DP 0 0 0 0 4 0.0254 19
Dl 0.1 0.1
Dl 0.1 1.675
Dl 1.675 1.675
Dl 1.675 0.1
DS -2.54 -1.27 -1.27 -2.54 0.1524 24
DS 1.905 -2.54 1.6002 -2.54 0.1524 24
DS 1.397 -2.54 1.0922 -2.54 0.1524 24
DS 0.889 -2.54 0.6096 -2.54 0.1524 24
DS 0.4064 -2.54 0.1016 -2.54 0.1524 24
DS -0.1016 -2.54 -0.4064 -2.54 0.1524 24
DS -0.6096 -2.54 -0.889 -2.54 0.1524 24
DS -1.0922 -2.54 -1.397 -2.54 0.1524 24
DS -1.6002 -2.54 -1.905 -2.54 0.1524 24
DS -2.54 -1.905 -2.54 -1.6002 0.1524 24
DS -2.54 -1.397 -2.54 -1.0922 0.1524 24
DS -2.54 -0.889 -2.54 -0.6096 0.1524 24
DS -2.54 -0.4064 -2.54 -0.1016 0.1524 24
DS -2.54 0.1016 -2.54 0.4064 0.1524 24
DS -2.54 0.6096 -2.54 0.889 0.1524 24
DS -2.54 1.0922 -2.54 1.397 0.1524 24
DS -2.54 1.6002 -2.54 1.905 0.1524 24
DS -1.905 2.54 -1.6002 2.54 0.1524 24
DS -1.397 2.54 -1.0922 2.54 0.1524 24
DS -0.889 2.54 -0.6096 2.54 0.1524 24
DS -0.4064 2.54 -0.1016 2.54 0.1524 24
DS 0.1016 2.54 0.4064 2.54 0.1524 24
DS 0.6096 2.54 0.889 2.54 0.1524 24
DS 1.0922 2.54 1.397 2.54 0.1524 24
DS 1.6002 2.54 1.905 2.54 0.1524 24
DS 2.54 1.905 2.54 1.6002 0.1524 24
DS 2.54 1.397 2.54 1.0922 0.1524 24
DS 2.54 0.889 2.54 0.6096 0.1524 24
DS 2.54 0.4064 2.54 0.1016 0.1524 24
DS 2.54 -0.1016 2.54 -0.4064 0.1524 24
DS 2.54 -0.6096 2.54 -0.889 0.1524 24
DS 2.54 -1.0922 2.54 -1.397 0.1524 24
DS 2.54 -1.6002 2.54 -1.905 0.1524 24
DS -2.54 2.54 2.54 2.54 0.1524 24
DS 2.54 2.54 2.54 -2.54 0.1524 24
DS 2.54 -2.54 -2.54 -2.54 0.1524 24
DS -2.54 -2.54 -2.54 2.54 0.1524 24
$PAD
Sh "1" R 0.3 0.8048 0 0 2700
At SMD N 00888000
.SolderMask 0
.SolderPaste 0
Ne 0 ""
Po -2.4524 -1.75
$EndPAD
$PAD
Sh "2" R 0.3 0.8048 0 0 2700
At SMD N 00888000
.SolderMask 0
.SolderPaste 0
Ne 0 ""
Po -2.4524 -1.25
$EndPAD
$PAD
Sh "3" R 0.3 0.8048 0 0 2700
At SMD N 00888000
.SolderMask 0
.SolderPaste 0
Ne 0 ""
Po -2.4524 -0.75
$EndPAD
$PAD
Sh "4" R 0.3 0.8048 0 0 2700
At SMD N 00888000
.SolderMask 0
.SolderPaste 0
Ne 0 ""
Po -2.4524 -0.25
$EndPAD
$PAD
Sh "5" R 0.3 0.8048 0 0 2700
At SMD N 00888000
.SolderMask 0
.SolderPaste 0
Ne 0 ""
Po -2.4524 0.25
$EndPAD
$PAD
Sh "6" R 0.3 0.8048 0 0 2700
At SMD N 00888000
.SolderMask 0
.SolderPaste 0
Ne 0 ""
Po -2.4524 0.75
$EndPAD
$PAD
Sh "7" R 0.3 0.8048 0 0 2700
At SMD N 00888000
.SolderMask 0
.SolderPaste 0
Ne 0 ""
Po -2.4524 1.25
$EndPAD
$PAD
Sh "8" R 0.3 0.8048 0 0 2700
At SMD N 00888000
.SolderMask 0
.SolderPaste 0
Ne 0 ""
Po -2.4524 1.75
$EndPAD
$PAD
Sh "9" R 0.3 0.8048 0 0 1800
At SMD N 00888000
.SolderMask 0
.SolderPaste 0
Ne 0 ""
Po -1.75 2.4524
$EndPAD
$PAD
Sh "10" R 0.3 0.8048 0 0 1800
At SMD N 00888000
.SolderMask 0
.SolderPaste 0
Ne 0 ""
Po -1.25 2.4524
$EndPAD
$PAD
Sh "11" R 0.3 0.8048 0 0 1800
At SMD N 00888000
.SolderMask 0
.SolderPaste 0
Ne 0 ""
Po -0.75 2.4524
$EndPAD
$PAD
Sh "12" R 0.3 0.8048 0 0 1800
At SMD N 00888000
.SolderMask 0
.SolderPaste 0
Ne 0 ""
Po -0.25 2.4524
$EndPAD
$PAD
Sh "13" R 0.3 0.8048 0 0 1800
At SMD N 00888000
.SolderMask 0
.SolderPaste 0
Ne 0 ""
Po 0.25 2.4524
$EndPAD
$PAD
Sh "14" R 0.3 0.8048 0 0 1800
At SMD N 00888000
.SolderMask 0
.SolderPaste 0
Ne 0 ""
Po 0.75 2.4524
$EndPAD
$PAD
Sh "15" R 0.3 0.8048 0 0 1800
At SMD N 00888000
.SolderMask 0
.SolderPaste 0
Ne 0 ""
Po 1.25 2.4524
$EndPAD
$PAD
Sh "16" R 0.3 0.8048 0 0 1800
At SMD N 00888000
.SolderMask 0
.SolderPaste 0
Ne 0 ""
Po 1.75 2.4524
$EndPAD
$PAD
Sh "17" R 0.3 0.8048 0 0 2700
At SMD N 00888000
.SolderMask 0
.SolderPaste 0
Ne 0 ""
Po 2.4524 1.75
$EndPAD
$PAD
Sh "18" R 0.3 0.8048 0 0 2700
At SMD N 00888000
.SolderMask 0
.SolderPaste 0
Ne 0 ""
Po 2.4524 1.25
$EndPAD
$PAD
Sh "19" R 0.3 0.8048 0 0 2700
At SMD N 00888000
.SolderMask 0
.SolderPaste 0
Ne 0 ""
Po 2.4524 0.75
$EndPAD
$PAD
Sh "20" R 0.3 0.8048 0 0 2700
At SMD N 00888000
.SolderMask 0
.SolderPaste 0
Ne 0 ""
Po 2.4524 0.25
$EndPAD
$PAD
Sh "21" R 0.3 0.8048 0 0 2700
At SMD N 00888000
.SolderMask 0
.SolderPaste 0
Ne 0 ""
Po 2.4524 -0.25
$EndPAD
$PAD
Sh "22" R 0.3 0.8048 0 0 2700
At SMD N 00888000
.SolderMask 0
.SolderPaste 0
Ne 0 ""
Po 2.4524 -0.75
$EndPAD
$PAD
Sh "23" R 0.3 0.8048 0 0 2700
At SMD N 00888000
.SolderMask 0
.SolderPaste 0
Ne 0 ""
Po 2.4524 -1.25
$EndPAD
$PAD
Sh "24" R 0.3 0.8048 0 0 2700
At SMD N 00888000
.SolderMask 0
.SolderPaste 0
Ne 0 ""
Po 2.4524 -1.75
$EndPAD
$PAD
Sh "25" R 0.3 0.8048 0 0 1800
At SMD N 00888000
.SolderMask 0
.SolderPaste 0
Ne 0 ""
Po 1.75 -2.4524
$EndPAD
$PAD
Sh "26" R 0.3 0.8048 0 0 1800
At SMD N 00888000
.SolderMask 0
.SolderPaste 0
Ne 0 ""
Po 1.25 -2.4524
$EndPAD
$PAD
Sh "27" R 0.3 0.8048 0 0 1800
At SMD N 00888000
.SolderMask 0
.SolderPaste 0
Ne 0 ""
Po 0.75 -2.4524
$EndPAD
$PAD
Sh "28" R 0.3 0.8048 0 0 1800
At SMD N 00888000
.SolderMask 0
.SolderPaste 0
Ne 0 ""
Po 0.25 -2.4524
$EndPAD
$PAD
Sh "29" R 0.3 0.8048 0 0 1800
At SMD N 00888000
.SolderMask 0
.SolderPaste 0
Ne 0 ""
Po -0.25 -2.4524
$EndPAD
$PAD
Sh "30" R 0.3 0.8048 0 0 1800
At SMD N 00888000
.SolderMask 0
.SolderPaste 0
Ne 0 ""
Po -0.75 -2.4524
$EndPAD
$PAD
Sh "31" R 0.3 0.8048 0 0 1800
At SMD N 00888000
.SolderMask 0
.SolderPaste 0
Ne 0 ""
Po -1.25 -2.4524
$EndPAD
$PAD
Sh "32" R 0.3 0.8048 0 0 1800
At SMD N 00888000
.SolderMask 0
.SolderPaste 0
Ne 0 ""
Po -1.75 -2.4524
$EndPAD
$PAD
Sh "33" R 3.55 3.55 0 0 0
At SMD N 00888000
.SolderMask 0
Ne 0 ""
Po 0 0
$EndPAD
$EndMODULE QFN-32_UH
