EESchema Schematic File Version 2
LIBS:power
LIBS:device
LIBS:switches
LIBS:relays
LIBS:motors
LIBS:transistors
LIBS:conn
LIBS:linear
LIBS:regul
LIBS:74xx
LIBS:cmos4000
LIBS:adc-dac
LIBS:memory
LIBS:xilinx
LIBS:microcontrollers
LIBS:dsp
LIBS:microchip
LIBS:analog_switches
LIBS:motorola
LIBS:texas
LIBS:intel
LIBS:audio
LIBS:interface
LIBS:digital-audio
LIBS:philips
LIBS:display
LIBS:cypress
LIBS:siliconi
LIBS:opto
LIBS:atmel
LIBS:contrib
LIBS:valves
LIBS:arduino
LIBS:LTC4331
LIBS:AD7291
LIBS:AD8641
LIBS:ADP151
LIBS:LT6015
LIBS:LTC3892HUHPBF
LIBS:LTC4251
LIBS:LTC4317
LIBS:LTC7000
LIBS:PCA9505DGG
LIBS:PCA9540BGD
LIBS:PCA9542A
LIBS:TPS76850-EP
LIBS:master_tce_controller-cache
EELAYER 25 0
EELAYER END
$Descr A3 16535 11693
encoding utf-8
Sheet 1 1
Title ""
Date ""
Rev ""
Comp ""
Comment1 ""
Comment2 ""
Comment3 ""
Comment4 ""
$EndDescr
$Comp
L Arduino_Nano_Socket XA?
U 1 1 5AF1C21F
P 8250 2700
F 0 "XA?" V 8350 2700 60  0000 C CNN
F 1 "Arduino_Nano_Socket" V 8150 2700 60  0000 C CNN
F 2 "" H 10050 6450 60  0001 C CNN
F 3 "" H 10050 6450 60  0001 C CNN
	1    8250 2700
	1    0    0    -1  
$EndComp
Wire Wire Line
	6950 3300 6300 3300
Wire Wire Line
	6950 3200 6300 3200
Text Label 6500 3300 0    60   ~ 0
GND
Text Label 6500 3200 0    60   ~ 0
GND
Wire Wire Line
	6950 3500 6300 3500
Text Label 6500 3500 0    60   ~ 0
+5V
Wire Wire Line
	5650 2500 6950 2500
Wire Wire Line
	6050 2400 6950 2400
Text Label 6500 2400 0    60   ~ 0
SCL
Text Label 6500 2500 0    60   ~ 0
SDA
$Comp
L R_Small R?
U 1 1 5AF1D7C1
P 6050 2200
F 0 "R?" H 6080 2220 50  0000 L CNN
F 1 "R_Small" H 6080 2160 50  0000 L CNN
F 2 "" H 6050 2200 50  0001 C CNN
F 3 "" H 6050 2200 50  0001 C CNN
	1    6050 2200
	1    0    0    -1  
$EndComp
$Comp
L R_Small R?
U 1 1 5AF1D80A
P 5650 2200
F 0 "R?" H 5680 2220 50  0000 L CNN
F 1 "R_Small" H 5680 2160 50  0000 L CNN
F 2 "" H 5650 2200 50  0001 C CNN
F 3 "" H 5650 2200 50  0001 C CNN
	1    5650 2200
	1    0    0    -1  
$EndComp
Wire Wire Line
	6050 2300 6050 2400
Wire Wire Line
	5650 2300 5650 2500
Wire Wire Line
	5650 2100 5650 2000
Wire Wire Line
	5650 2000 6050 2000
Wire Wire Line
	6050 2000 6050 2100
Wire Wire Line
	5850 1350 5850 2000
Text Label 5850 1800 1    60   ~ 0
+5V
Connection ~ 5850 2000
$Comp
L LTC4331 U?
U 1 1 5AF1D9AA
P 5650 5400
F 0 "U?" H 5650 5300 50  0000 C CNN
F 1 "LTC4331" H 5650 5500 50  0000 C CNN
F 2 "MODULE" H 5650 5400 50  0001 C CNN
F 3 "DOCUMENTATION" H 5650 5400 50  0001 C CNN
	1    5650 5400
	1    0    0    -1  
$EndComp
Wire Wire Line
	4900 5500 4500 5500
Wire Wire Line
	4900 5600 4500 5600
Text Label 4650 5500 0    60   ~ 0
SCL
Text Label 4650 5600 0    60   ~ 0
SDA
NoConn ~ 6400 5100
NoConn ~ 4900 5700
Wire Wire Line
	6800 5200 6400 5200
Wire Wire Line
	6800 5300 6400 5300
Text Label 6600 5300 0    60   ~ 0
A1
Text Label 6600 5200 0    60   ~ 0
B1
Wire Wire Line
	6800 5500 6400 5500
Wire Wire Line
	6400 5600 7550 5600
Wire Wire Line
	6400 5700 7850 5700
Wire Wire Line
	6800 5800 6400 5800
Wire Wire Line
	6800 5900 6400 5900
Wire Wire Line
	4900 5900 4500 5900
Wire Wire Line
	4900 5300 4500 5300
Wire Wire Line
	6800 5400 6400 5400
Wire Wire Line
	6800 5000 6400 5000
Wire Wire Line
	3650 4900 4900 4900
$Comp
L C_Small C?
U 1 1 5AF1DF88
P 3650 5150
F 0 "C?" H 3660 5220 50  0000 L CNN
F 1 "4.7uF" H 3660 5070 50  0000 L CNN
F 2 "" H 3650 5150 50  0001 C CNN
F 3 "" H 3650 5150 50  0001 C CNN
	1    3650 5150
	1    0    0    -1  
$EndComp
Wire Wire Line
	3650 5050 3650 4900
Wire Wire Line
	3650 5250 3650 5600
Text Label 3650 5500 1    60   ~ 0
GND
$Comp
L C_Small C?
U 1 1 5AF1E2AE
P 3950 5150
F 0 "C?" H 3960 5220 50  0000 L CNN
F 1 "1uF" H 3960 5070 50  0000 L CNN
F 2 "" H 3950 5150 50  0001 C CNN
F 3 "" H 3950 5150 50  0001 C CNN
	1    3950 5150
	1    0    0    -1  
$EndComp
Wire Wire Line
	3950 5250 3950 5600
Text Label 3950 5500 1    60   ~ 0
GND
Wire Wire Line
	3950 5050 3950 5000
Wire Wire Line
	3950 5000 4900 5000
Wire Wire Line
	6950 3400 6300 3400
Text Label 6500 3400 0    60   ~ 0
+3V3
Text Label 4350 5000 0    60   ~ 0
+3V3
Text Label 4350 4900 0    60   ~ 0
+5V
Wire Wire Line
	4900 5100 4750 5100
Wire Wire Line
	4750 5100 4750 5000
Connection ~ 4750 5000
Text Label 4600 5300 0    60   ~ 0
LINK1
NoConn ~ 4900 5400
Wire Wire Line
	4900 5200 4500 5200
Text Label 4600 5200 0    60   ~ 0
GND
Text Label 6550 5000 0    60   ~ 0
GND
Text Label 6550 5400 0    60   ~ 0
+5V
Text Label 6550 5500 0    60   ~ 0
GND
$Comp
L R_Small R?
U 1 1 5AF1EAB8
P 7550 5450
F 0 "R?" H 7580 5470 50  0000 L CNN
F 1 "100K" H 7580 5410 50  0000 L CNN
F 2 "" H 7550 5450 50  0001 C CNN
F 3 "" H 7550 5450 50  0001 C CNN
	1    7550 5450
	1    0    0    -1  
$EndComp
$Comp
L R_Small R?
U 1 1 5AF1EB5B
P 7850 5450
F 0 "R?" H 7880 5470 50  0000 L CNN
F 1 "100K" H 7880 5410 50  0000 L CNN
F 2 "" H 7850 5450 50  0001 C CNN
F 3 "" H 7850 5450 50  0001 C CNN
	1    7850 5450
	1    0    0    -1  
$EndComp
$Comp
L R_Small R?
U 1 1 5AF1EB85
P 7550 5850
F 0 "R?" H 7580 5870 50  0000 L CNN
F 1 "100K" H 7580 5810 50  0000 L CNN
F 2 "" H 7550 5850 50  0001 C CNN
F 3 "" H 7550 5850 50  0001 C CNN
	1    7550 5850
	1    0    0    -1  
$EndComp
$Comp
L R_Small R?
U 1 1 5AF1EB8B
P 7850 5850
F 0 "R?" H 7880 5870 50  0000 L CNN
F 1 "100K" H 7880 5810 50  0000 L CNN
F 2 "" H 7850 5850 50  0001 C CNN
F 3 "" H 7850 5850 50  0001 C CNN
	1    7850 5850
	1    0    0    -1  
$EndComp
Wire Wire Line
	7550 5350 7550 5250
Wire Wire Line
	7550 5250 7850 5250
Wire Wire Line
	7850 5250 7850 5350
Wire Wire Line
	7700 5250 7700 4950
Connection ~ 7700 5250
Text Label 7700 5150 1    60   ~ 0
+5V
Wire Wire Line
	7550 5550 7550 5750
Wire Wire Line
	7850 5550 7850 5750
Wire Wire Line
	7550 5950 7550 6100
Wire Wire Line
	7550 6100 7850 6100
Wire Wire Line
	7850 6100 7850 5950
Wire Wire Line
	7700 6400 7700 6100
Connection ~ 7700 6100
Text Label 7700 6350 1    60   ~ 0
GND
Connection ~ 7550 5600
Connection ~ 7850 5700
Text Label 6550 5800 0    60   ~ 0
CTRL1
Wire Wire Line
	4500 6800 7350 6800
$Comp
L R_Small R?
U 1 1 5AF1F2EF
P 7050 6550
F 0 "R?" H 7080 6570 50  0000 L CNN
F 1 "100K" H 7080 6510 50  0000 L CNN
F 2 "" H 7050 6550 50  0001 C CNN
F 3 "" H 7050 6550 50  0001 C CNN
	1    7050 6550
	1    0    0    -1  
$EndComp
$Comp
L R_Small R?
U 1 1 5AF1F2F5
P 7350 6550
F 0 "R?" H 7380 6570 50  0000 L CNN
F 1 "100K" H 7380 6510 50  0000 L CNN
F 2 "" H 7350 6550 50  0001 C CNN
F 3 "" H 7350 6550 50  0001 C CNN
	1    7350 6550
	1    0    0    -1  
$EndComp
$Comp
L R_Small R?
U 1 1 5AF1F2FB
P 7050 6950
F 0 "R?" H 7080 6970 50  0000 L CNN
F 1 "100K" H 7080 6910 50  0000 L CNN
F 2 "" H 7050 6950 50  0001 C CNN
F 3 "" H 7050 6950 50  0001 C CNN
	1    7050 6950
	1    0    0    -1  
$EndComp
$Comp
L R_Small R?
U 1 1 5AF1F301
P 7350 6950
F 0 "R?" H 7380 6970 50  0000 L CNN
F 1 "100K" H 7380 6910 50  0000 L CNN
F 2 "" H 7350 6950 50  0001 C CNN
F 3 "" H 7350 6950 50  0001 C CNN
	1    7350 6950
	1    0    0    -1  
$EndComp
Wire Wire Line
	7050 6450 7050 6350
Wire Wire Line
	7050 6350 7350 6350
Wire Wire Line
	7350 6350 7350 6450
Wire Wire Line
	7200 6350 7200 6050
Connection ~ 7200 6350
Text Label 7200 6250 1    60   ~ 0
+5V
Wire Wire Line
	7050 6650 7050 6850
Wire Wire Line
	7350 6650 7350 6850
Wire Wire Line
	7050 7050 7050 7200
Wire Wire Line
	7050 7200 7350 7200
Wire Wire Line
	7350 7200 7350 7050
Wire Wire Line
	7200 7500 7200 7200
Connection ~ 7200 7200
Text Label 7200 7450 1    60   ~ 0
GND
Connection ~ 7050 6700
Connection ~ 7350 6800
Wire Wire Line
	6800 5900 6800 6700
Wire Wire Line
	6800 6700 7050 6700
Wire Wire Line
	4500 5900 4500 6800
NoConn ~ 4900 5800
$Comp
L R_Small R?
U 1 1 5AF1F6A7
P 3900 6300
F 0 "R?" H 3930 6320 50  0000 L CNN
F 1 "R_Small" H 3930 6260 50  0000 L CNN
F 2 "" H 3900 6300 50  0001 C CNN
F 3 "" H 3900 6300 50  0001 C CNN
	1    3900 6300
	1    0    0    -1  
$EndComp
$Comp
L D D?
U 1 1 5AF1F7EA
P 3900 6700
F 0 "D?" H 3900 6800 50  0000 C CNN
F 1 "D" H 3900 6600 50  0000 C CNN
F 2 "" H 3900 6700 50  0001 C CNN
F 3 "" H 3900 6700 50  0001 C CNN
	1    3900 6700
	0    -1   -1   0   
$EndComp
Wire Wire Line
	3900 6550 3900 6400
Wire Wire Line
	3900 6200 3900 5850
Wire Wire Line
	3900 6850 3900 7150
Text Label 3900 7100 1    60   ~ 0
LINK1
Text Label 3900 6100 1    60   ~ 0
+3V3
$Comp
L R_Small R?
U 1 1 5AF1FEA2
P 3600 6300
F 0 "R?" H 3630 6320 50  0000 L CNN
F 1 "120" H 3630 6260 50  0000 L CNN
F 2 "" H 3600 6300 50  0001 C CNN
F 3 "" H 3600 6300 50  0001 C CNN
	1    3600 6300
	1    0    0    -1  
$EndComp
Wire Wire Line
	3600 6200 3600 5950
Wire Wire Line
	3600 6650 3600 6400
Text Label 3600 6100 1    60   ~ 0
A1
Text Label 3600 6600 1    60   ~ 0
B1
$Comp
L Polyfuse F?
U 1 1 5AF21FC7
P 6100 3600
F 0 "F?" V 6000 3600 50  0000 C CNN
F 1 "Polyfuse" V 6200 3600 50  0000 C CNN
F 2 "" H 6150 3400 50  0001 L CNN
F 3 "" H 6100 3600 50  0001 C CNN
	1    6100 3600
	0    1    1    0   
$EndComp
Wire Wire Line
	5950 3600 5300 3600
Text Label 5500 3600 0    60   ~ 0
+12V
Wire Wire Line
	6250 3600 6950 3600
$Comp
L AD7291 U?
U 1 1 5AF82CF1
P 12500 5800
F 0 "U?" H 12500 5700 50  0000 C CNN
F 1 "AD7291" H 12500 5900 50  0000 C CNN
F 2 "MODULE" H 12500 5800 50  0001 C CNN
F 3 "DOCUMENTATION" H 12500 5800 50  0001 C CNN
	1    12500 5800
	1    0    0    -1  
$EndComp
$Comp
L ADP151 U?
U 1 1 5AF830E9
P 10550 6350
F 0 "U?" H 10400 6575 50  0000 C CNN
F 1 "ADP151" H 10550 6575 50  0000 L CNN
F 2 "TO_SOT_Packages_SMD:SOT-23-5" H 10550 6675 50  0001 C CNN
F 3 "" H 10550 6350 50  0001 C CNN
	1    10550 6350
	1    0    0    -1  
$EndComp
$Comp
L LT6015 U?
U 1 1 5AF833B0
P 9900 5000
F 0 "U?" H 9950 5200 50  0000 C CNN
F 1 "LT6015" H 9900 4800 50  0000 L CNN
F 2 "TO_SOT_Packages_SMD:SOT-23-5" H 9900 5000 50  0001 C CNN
F 3 "" H 9950 5200 50  0001 C CNN
	1    9900 5000
	1    0    0    -1  
$EndComp
Wire Wire Line
	13250 5550 13700 5550
Text Label 13450 5550 0    60   ~ 0
Vin0
$Comp
L C_Small C?
U 1 1 5AF8406F
P 9800 6400
F 0 "C?" H 9810 6470 50  0000 L CNN
F 1 "1uF" H 9810 6320 50  0000 L CNN
F 2 "" H 9800 6400 50  0001 C CNN
F 3 "" H 9800 6400 50  0001 C CNN
	1    9800 6400
	1    0    0    -1  
$EndComp
$Comp
L C_Small C?
U 1 1 5AF84485
P 11050 6400
F 0 "C?" H 11060 6470 50  0000 L CNN
F 1 "1uF" H 11060 6320 50  0000 L CNN
F 2 "" H 11050 6400 50  0001 C CNN
F 3 "" H 11050 6400 50  0001 C CNN
	1    11050 6400
	1    0    0    -1  
$EndComp
Wire Wire Line
	9500 6250 10250 6250
Wire Wire Line
	9800 6300 9800 6250
Connection ~ 9800 6250
Wire Wire Line
	10250 6350 10100 6350
Wire Wire Line
	10100 6350 10100 6250
Connection ~ 10100 6250
Wire Wire Line
	10550 6650 10550 7200
Wire Wire Line
	9800 6500 9800 6750
Connection ~ 10550 6750
Wire Wire Line
	10850 6250 11750 6250
Wire Wire Line
	11750 6050 11450 6050
Wire Wire Line
	11750 5850 11450 5850
Text Label 11500 5850 0    60   ~ 0
GND
Wire Wire Line
	11750 5750 11450 5750
Text Label 11500 5750 0    60   ~ 0
GND
Wire Wire Line
	11750 5650 11450 5650
Text Label 11500 5650 0    60   ~ 0
GND
Wire Wire Line
	11750 5550 11450 5550
Text Label 11500 5550 0    60   ~ 0
GND
Wire Wire Line
	11750 5450 11450 5450
Text Label 11500 5450 0    60   ~ 0
GND
Wire Wire Line
	11750 5350 11450 5350
Text Label 11500 5350 0    60   ~ 0
GND
Wire Wire Line
	13550 5450 13250 5450
Text Label 13300 5450 0    60   ~ 0
GND
Wire Wire Line
	13550 5350 13250 5350
Text Label 13300 5350 0    60   ~ 0
GND
Wire Wire Line
	11750 6150 11450 6150
Text Label 11500 6150 0    60   ~ 0
GND
Text Label 11500 6050 0    60   ~ 0
DCAP
Text Label 9550 6250 0    60   ~ 0
+5V
Wire Wire Line
	13550 5850 13250 5850
Wire Wire Line
	13550 5950 13250 5950
Text Label 13300 5850 0    60   ~ 0
SCL
Text Label 13300 5950 0    60   ~ 0
SDA
Text Label 10550 7150 1    60   ~ 0
GND
Wire Wire Line
	11750 5950 11450 5950
Text Label 11500 5950 0    60   ~ 0
VREF
$Comp
L C_Small C?
U 1 1 5AF887A5
P 14050 5850
F 0 "C?" H 14060 5920 50  0000 L CNN
F 1 "10uF" H 14060 5770 50  0000 L CNN
F 2 "" H 14050 5850 50  0001 C CNN
F 3 "" H 14050 5850 50  0001 C CNN
	1    14050 5850
	1    0    0    -1  
$EndComp
$Comp
L C_Small C?
U 1 1 5AF88A75
P 11250 6400
F 0 "C?" H 11260 6470 50  0000 L CNN
F 1 "10uF" H 11260 6320 50  0000 L CNN
F 2 "" H 11250 6400 50  0001 C CNN
F 3 "" H 11250 6400 50  0001 C CNN
	1    11250 6400
	1    0    0    -1  
$EndComp
$Comp
L C_Small C?
U 1 1 5AF88AB6
P 14350 5850
F 0 "C?" H 14360 5920 50  0000 L CNN
F 1 "10uF" H 14360 5770 50  0000 L CNN
F 2 "" H 14350 5850 50  0001 C CNN
F 3 "" H 14350 5850 50  0001 C CNN
	1    14350 5850
	1    0    0    -1  
$EndComp
$Comp
L C_Small C?
U 1 1 5AF88AF0
P 11450 6400
F 0 "C?" H 11460 6470 50  0000 L CNN
F 1 "100nF" H 11460 6320 50  0000 L CNN
F 2 "" H 11450 6400 50  0001 C CNN
F 3 "" H 11450 6400 50  0001 C CNN
	1    11450 6400
	1    0    0    -1  
$EndComp
$Comp
L C_Small C?
U 1 1 5AF88B92
P 14650 5850
F 0 "C?" H 14660 5920 50  0000 L CNN
F 1 "100nF" H 14660 5770 50  0000 L CNN
F 2 "" H 14650 5850 50  0001 C CNN
F 3 "" H 14650 5850 50  0001 C CNN
	1    14650 5850
	1    0    0    -1  
$EndComp
Wire Wire Line
	14050 5450 14050 5750
Text Label 14050 5700 1    60   ~ 0
VREF
Wire Wire Line
	11050 6300 11050 6250
Connection ~ 11050 6250
Wire Wire Line
	11050 6750 11050 6500
Wire Wire Line
	9800 6750 11450 6750
Wire Wire Line
	11250 6300 11250 6250
Connection ~ 11250 6250
Wire Wire Line
	11450 6300 11450 6250
Connection ~ 11450 6250
Wire Wire Line
	11250 6750 11250 6500
Connection ~ 11050 6750
Wire Wire Line
	11450 6750 11450 6500
Connection ~ 11250 6750
Wire Wire Line
	14500 5350 14500 5650
Text Label 14500 5600 1    60   ~ 0
DCAP
Wire Wire Line
	14350 5750 14350 5650
Wire Wire Line
	14350 5650 14650 5650
Wire Wire Line
	14650 5650 14650 5750
Connection ~ 14500 5650
Wire Wire Line
	14050 5950 14050 6100
Wire Wire Line
	14050 6100 14650 6100
Wire Wire Line
	14350 5950 14350 6400
Wire Wire Line
	14650 6100 14650 5950
Connection ~ 14350 6100
Text Label 14350 6350 1    60   ~ 0
GND
Wire Wire Line
	9800 4700 9800 4400
Text Label 9800 4600 1    60   ~ 0
+5V
Wire Wire Line
	9800 5600 9800 5300
Text Label 9800 5550 1    60   ~ 0
GND
Wire Wire Line
	9600 5100 9200 5100
Wire Wire Line
	9200 5100 9200 5700
Wire Wire Line
	9200 5700 10400 5700
Wire Wire Line
	10400 5700 10400 5000
Wire Wire Line
	10200 5000 10750 5000
Connection ~ 10400 5000
Text Label 10550 5000 0    60   ~ 0
Vin0
$Comp
L R R?
U 1 1 5AF8C60A
P 8800 5200
F 0 "R?" V 8880 5200 50  0000 C CNN
F 1 "5k" V 8800 5200 50  0000 C CNN
F 2 "" V 8730 5200 50  0001 C CNN
F 3 "" H 8800 5200 50  0001 C CNN
	1    8800 5200
	1    0    0    -1  
$EndComp
Wire Wire Line
	8800 5650 8800 5350
Text Label 8800 5600 1    60   ~ 0
GND
Wire Wire Line
	8800 4400 8800 5050
Wire Wire Line
	8800 4900 9600 4900
Connection ~ 8800 4900
Text Label 8800 4700 1    60   ~ 0
TEMP
$EndSCHEMATC
