G04 #@! TF.FileFunction,Copper,L2,Bot,Plane*
%FSLAX46Y46*%
G04 Gerber Fmt 4.6, Leading zero omitted, Abs format (unit mm)*
G04 Created by KiCad (PCBNEW 4.0.7) date 05/07/18 12:14:37*
%MOMM*%
%LPD*%
G01*
G04 APERTURE LIST*
%ADD10C,0.100000*%
%ADD11R,1.450000X1.450000*%
%ADD12C,1.450000*%
G04 APERTURE END LIST*
D10*
D11*
X121500000Y-111000000D03*
D12*
X121500000Y-113000000D03*
X123500000Y-111000000D03*
X123500000Y-113000000D03*
X125500000Y-111000000D03*
X125500000Y-113000000D03*
X127500000Y-111000000D03*
X127500000Y-113000000D03*
D11*
X139500000Y-111000000D03*
D12*
X139500000Y-113000000D03*
X141500000Y-111000000D03*
X141500000Y-113000000D03*
X143500000Y-111000000D03*
X143500000Y-113000000D03*
X145500000Y-111000000D03*
X145500000Y-113000000D03*
D11*
X139500000Y-99000000D03*
D12*
X139500000Y-101000000D03*
X141500000Y-99000000D03*
X141500000Y-101000000D03*
X143500000Y-99000000D03*
X143500000Y-101000000D03*
X145500000Y-99000000D03*
X145500000Y-101000000D03*
D11*
X121500000Y-99000000D03*
D12*
X121500000Y-101000000D03*
X123500000Y-99000000D03*
X123500000Y-101000000D03*
X125500000Y-99000000D03*
X125500000Y-101000000D03*
X127500000Y-99000000D03*
X127500000Y-101000000D03*
D11*
X117500000Y-113000000D03*
D12*
X119500000Y-113000000D03*
X117500000Y-111000000D03*
X119500000Y-111000000D03*
X117500000Y-109000000D03*
X119500000Y-109000000D03*
X117500000Y-107000000D03*
X119500000Y-107000000D03*
X117500000Y-105000000D03*
X119500000Y-105000000D03*
X117500000Y-103000000D03*
X119500000Y-103000000D03*
X117500000Y-101000000D03*
X119500000Y-101000000D03*
X117500000Y-99000000D03*
X119500000Y-99000000D03*
D11*
X147500000Y-113000000D03*
D12*
X149500000Y-113000000D03*
X147500000Y-111000000D03*
X149500000Y-111000000D03*
X147500000Y-109000000D03*
X149500000Y-109000000D03*
X147500000Y-107000000D03*
X149500000Y-107000000D03*
X147500000Y-105000000D03*
X149500000Y-105000000D03*
X147500000Y-103000000D03*
X149500000Y-103000000D03*
X147500000Y-101000000D03*
X149500000Y-101000000D03*
X147500000Y-99000000D03*
X149500000Y-99000000D03*
D10*
G36*
X146450000Y-110020710D02*
X146450000Y-113671800D01*
X138242510Y-113671800D01*
X134535355Y-109964645D01*
X134518815Y-109953675D01*
X134500000Y-109950000D01*
X118550000Y-109950000D01*
X118550000Y-106050000D01*
X142479290Y-106050000D01*
X146450000Y-110020710D01*
X146450000Y-110020710D01*
G37*
X146450000Y-110020710D02*
X146450000Y-113671800D01*
X138242510Y-113671800D01*
X134535355Y-109964645D01*
X134518815Y-109953675D01*
X134500000Y-109950000D01*
X118550000Y-109950000D01*
X118550000Y-106050000D01*
X142479290Y-106050000D01*
X146450000Y-110020710D01*
G36*
X128450000Y-101950000D02*
X118550000Y-101950000D01*
X118550000Y-98328200D01*
X128450000Y-98328200D01*
X128450000Y-101950000D01*
X128450000Y-101950000D01*
G37*
X128450000Y-101950000D02*
X118550000Y-101950000D01*
X118550000Y-98328200D01*
X128450000Y-98328200D01*
X128450000Y-101950000D01*
M02*
