G04 #@! TF.FileFunction,Copper,L1,Top,Signal*
%FSLAX46Y46*%
G04 Gerber Fmt 4.6, Leading zero omitted, Abs format (unit mm)*
G04 Created by KiCad (PCBNEW 4.0.7) date 05/07/18 12:08:27*
%MOMM*%
%LPD*%
G01*
G04 APERTURE LIST*
%ADD10C,0.100000*%
%ADD11R,0.750000X0.800000*%
%ADD12R,0.650000X0.350000*%
%ADD13R,0.775000X1.200000*%
%ADD14R,0.900000X0.500000*%
%ADD15R,0.500000X0.900000*%
%ADD16R,1.400000X0.300000*%
%ADD17R,1.650000X2.850000*%
%ADD18R,1.450000X1.450000*%
%ADD19C,1.450000*%
%ADD20C,1.500000*%
%ADD21C,0.600000*%
%ADD22C,0.250000*%
G04 APERTURE END LIST*
D10*
D11*
X103800000Y-125350000D03*
X103800000Y-123850000D03*
X105800000Y-128350000D03*
X105800000Y-126850000D03*
X114800000Y-125350000D03*
X114800000Y-126850000D03*
D12*
X119850000Y-126075000D03*
X119850000Y-125425000D03*
X119850000Y-124775000D03*
X119850000Y-124125000D03*
X116750000Y-124125000D03*
X116750000Y-124775000D03*
X116750000Y-125425000D03*
X116750000Y-126075000D03*
D13*
X117912500Y-124500000D03*
X117912500Y-125700000D03*
X118687500Y-124500000D03*
X118687500Y-125700000D03*
D14*
X105800000Y-123850000D03*
X105800000Y-125350000D03*
D15*
X116300000Y-128850000D03*
X114800000Y-128850000D03*
D14*
X115300000Y-122850000D03*
X115300000Y-124350000D03*
D16*
X108100000Y-123350000D03*
X108100000Y-123850000D03*
X108100000Y-124350000D03*
X108100000Y-124850000D03*
X108100000Y-125350000D03*
X112500000Y-125350000D03*
X112500000Y-124850000D03*
X112500000Y-124350000D03*
X112500000Y-123850000D03*
X112500000Y-123350000D03*
X108100000Y-125850000D03*
X108100000Y-126350000D03*
X108100000Y-126850000D03*
X112500000Y-125850000D03*
X112500000Y-126350000D03*
X112500000Y-126850000D03*
D17*
X110300000Y-125000000D03*
D18*
X94300000Y-132100000D03*
D19*
X96300000Y-132100000D03*
X94300000Y-130100000D03*
X96300000Y-130100000D03*
X94300000Y-128100000D03*
X96300000Y-128100000D03*
X94300000Y-126100000D03*
X96300000Y-126100000D03*
X94300000Y-124100000D03*
X96300000Y-124100000D03*
X94300000Y-122100000D03*
X96300000Y-122100000D03*
X94300000Y-120100000D03*
X96300000Y-120100000D03*
X94300000Y-118100000D03*
X96300000Y-118100000D03*
D18*
X124300000Y-132100000D03*
D19*
X126300000Y-132100000D03*
X124300000Y-130100000D03*
X126300000Y-130100000D03*
X124300000Y-128100000D03*
X126300000Y-128100000D03*
X124300000Y-126100000D03*
X126300000Y-126100000D03*
X124300000Y-124100000D03*
X126300000Y-124100000D03*
X124300000Y-122100000D03*
X126300000Y-122100000D03*
X124300000Y-120100000D03*
X126300000Y-120100000D03*
X124300000Y-118100000D03*
X126300000Y-118100000D03*
D20*
X114800000Y-121100000D03*
X110800000Y-121100000D03*
X118800000Y-121100000D03*
X106800000Y-121100000D03*
X105800000Y-130600000D03*
D21*
X105500000Y-129399990D03*
X112550000Y-131100000D03*
X110050000Y-131100000D03*
X108800000Y-131100000D03*
X107550000Y-131099998D03*
X111300000Y-131100000D03*
X109800000Y-117800002D03*
X113600000Y-120800000D03*
X112000000Y-120800000D03*
X104050000Y-122300000D03*
X104050000Y-120900000D03*
X109675000Y-125725000D03*
X110925000Y-125725000D03*
X109675000Y-124475000D03*
X110925000Y-124475000D03*
X110300000Y-125000000D03*
X104800000Y-127350000D03*
X103300000Y-121600000D03*
X116300000Y-129600000D03*
X116300000Y-128100000D03*
X107525007Y-128100091D03*
X106569453Y-123216656D03*
X105600002Y-122400000D03*
X108800000Y-128100000D03*
X120600000Y-126000000D03*
X120600000Y-125400000D03*
X120600000Y-124800000D03*
X114050000Y-126850000D03*
X114800000Y-127600000D03*
X115550000Y-126850000D03*
X113689598Y-125098483D03*
X103200000Y-127500000D03*
X103200000Y-128600000D03*
X103200000Y-126400000D03*
X108200000Y-121400000D03*
X109500000Y-121400000D03*
X112900000Y-122600000D03*
X113600000Y-122600000D03*
X114300000Y-122600000D03*
X114800000Y-119350000D03*
X110200000Y-120300000D03*
X105800000Y-130600000D03*
X106800000Y-126600000D03*
X113700000Y-125900000D03*
X119800000Y-123600000D03*
D22*
X105799999Y-129099991D02*
X105500000Y-129399990D01*
X105800000Y-128350000D02*
X105799999Y-129099991D01*
X103800000Y-125350000D02*
X103850000Y-125350000D01*
X103850000Y-125350000D02*
X104800000Y-126300000D01*
X104800000Y-126300000D02*
X104800000Y-127350000D01*
X116300000Y-128850000D02*
X116300000Y-129600000D01*
X116300000Y-128850000D02*
X116300000Y-128100000D01*
X103800000Y-123850000D02*
X105800000Y-123850000D01*
X108100000Y-124350000D02*
X106300000Y-124350000D01*
X106300000Y-124350000D02*
X105800000Y-123850000D01*
X106624998Y-125850000D02*
X105800000Y-126674998D01*
X108100000Y-125850000D02*
X106624998Y-125850000D01*
X105800000Y-126674998D02*
X105800000Y-126850000D01*
X106800000Y-121100000D02*
X106800000Y-121200002D01*
X106800000Y-121200002D02*
X105600002Y-122400000D01*
X112500000Y-124350000D02*
X113825000Y-124350000D01*
X113825000Y-124350000D02*
X114800000Y-125325000D01*
X114800000Y-125325000D02*
X114800000Y-125350000D01*
X119850000Y-126075000D02*
X120525000Y-126075000D01*
X120525000Y-126075000D02*
X120600000Y-126000000D01*
X119850000Y-125425000D02*
X120575000Y-125425000D01*
X120575000Y-125425000D02*
X120600000Y-125400000D01*
X119850000Y-124775000D02*
X120575000Y-124775000D01*
X120575000Y-124775000D02*
X120600000Y-124800000D01*
X114800000Y-126850000D02*
X114050000Y-126850000D01*
X114800000Y-126850000D02*
X114800000Y-127600000D01*
X114800000Y-126850000D02*
X115550000Y-126850000D01*
X113450000Y-124850000D02*
X113689598Y-125089598D01*
X112500000Y-124850000D02*
X113450000Y-124850000D01*
X113689598Y-125089598D02*
X113689598Y-125098483D01*
X114800000Y-126850000D02*
X114800000Y-126875000D01*
X114800000Y-126875000D02*
X115025000Y-127100000D01*
X113600000Y-122600000D02*
X112900000Y-122600000D01*
X114300000Y-122600000D02*
X113600000Y-122600000D01*
X115300000Y-122850000D02*
X114550000Y-122850000D01*
X114550000Y-122850000D02*
X114300000Y-122600000D01*
X112500000Y-123350000D02*
X115150000Y-123350000D01*
X115150000Y-123350000D02*
X115300000Y-123200000D01*
X115300000Y-123200000D02*
X115300000Y-122850000D01*
X112500000Y-123850000D02*
X115150000Y-123850000D01*
X115150000Y-123850000D02*
X115300000Y-124000000D01*
X115300000Y-124000000D02*
X115300000Y-124350000D01*
X108100000Y-125350000D02*
X105800000Y-125350000D01*
X114800000Y-128850000D02*
X114800000Y-128600000D01*
X114800000Y-128600000D02*
X113050000Y-126850000D01*
X113050000Y-126850000D02*
X112500000Y-126850000D01*
X114800000Y-121100000D02*
X114800000Y-119350000D01*
X110800000Y-121100000D02*
X110800000Y-120900000D01*
X110800000Y-120900000D02*
X110200000Y-120300000D01*
X106800000Y-126600000D02*
X107050000Y-126350000D01*
X107050000Y-126350000D02*
X108100000Y-126350000D01*
X119800000Y-123600000D02*
X119800000Y-122100000D01*
X119800000Y-122100000D02*
X118800000Y-121100000D01*
X112500000Y-125350000D02*
X112500000Y-125850000D01*
X113700000Y-125900000D02*
X113650000Y-125850000D01*
X113650000Y-125850000D02*
X112500000Y-125850000D01*
X119850000Y-124125000D02*
X119850000Y-123650000D01*
X119850000Y-123650000D02*
X119800000Y-123600000D01*
D10*
G36*
X120909705Y-124551197D02*
X120919042Y-124554030D01*
X120927645Y-124558628D01*
X120935185Y-124564815D01*
X120941372Y-124572355D01*
X120945970Y-124580958D01*
X120948803Y-124590295D01*
X120950000Y-124602452D01*
X120950000Y-126197548D01*
X120948803Y-126209705D01*
X120945970Y-126219042D01*
X120941372Y-126227645D01*
X120935185Y-126235185D01*
X120927645Y-126241372D01*
X120919042Y-126245970D01*
X120909705Y-126248803D01*
X120897548Y-126250000D01*
X119552452Y-126250000D01*
X119540295Y-126248803D01*
X119530958Y-126245970D01*
X119522355Y-126241372D01*
X119514815Y-126235185D01*
X119508628Y-126227645D01*
X119504030Y-126219042D01*
X119501197Y-126209705D01*
X119500000Y-126197548D01*
X119500000Y-124602452D01*
X119501197Y-124590295D01*
X119504030Y-124580958D01*
X119508628Y-124572355D01*
X119514815Y-124564815D01*
X119522355Y-124558628D01*
X119530958Y-124554030D01*
X119540295Y-124551197D01*
X119552452Y-124550000D01*
X120897548Y-124550000D01*
X120909705Y-124551197D01*
X120909705Y-124551197D01*
G37*
X120909705Y-124551197D02*
X120919042Y-124554030D01*
X120927645Y-124558628D01*
X120935185Y-124564815D01*
X120941372Y-124572355D01*
X120945970Y-124580958D01*
X120948803Y-124590295D01*
X120950000Y-124602452D01*
X120950000Y-126197548D01*
X120948803Y-126209705D01*
X120945970Y-126219042D01*
X120941372Y-126227645D01*
X120935185Y-126235185D01*
X120927645Y-126241372D01*
X120919042Y-126245970D01*
X120909705Y-126248803D01*
X120897548Y-126250000D01*
X119552452Y-126250000D01*
X119540295Y-126248803D01*
X119530958Y-126245970D01*
X119522355Y-126241372D01*
X119514815Y-126235185D01*
X119508628Y-126227645D01*
X119504030Y-126219042D01*
X119501197Y-126209705D01*
X119500000Y-126197548D01*
X119500000Y-124602452D01*
X119501197Y-124590295D01*
X119504030Y-124580958D01*
X119508628Y-124572355D01*
X119514815Y-124564815D01*
X119522355Y-124558628D01*
X119530958Y-124554030D01*
X119540295Y-124551197D01*
X119552452Y-124550000D01*
X120897548Y-124550000D01*
X120909705Y-124551197D01*
G36*
X111209705Y-123401197D02*
X111219042Y-123404030D01*
X111227645Y-123408628D01*
X111235185Y-123414815D01*
X111241372Y-123422355D01*
X111245970Y-123430958D01*
X111248803Y-123440295D01*
X111250000Y-123452452D01*
X111250000Y-126897548D01*
X111248803Y-126909705D01*
X111245970Y-126919042D01*
X111241372Y-126927645D01*
X111235185Y-126935185D01*
X111227645Y-126941372D01*
X111219042Y-126945970D01*
X111209705Y-126948803D01*
X111197548Y-126950000D01*
X107502452Y-126950000D01*
X107490295Y-126948803D01*
X107480958Y-126945970D01*
X107472355Y-126941372D01*
X107464815Y-126935185D01*
X107458628Y-126927645D01*
X107454030Y-126919042D01*
X107451197Y-126909705D01*
X107450000Y-126897548D01*
X107450000Y-126802452D01*
X107451197Y-126790295D01*
X107454030Y-126780958D01*
X107458628Y-126772355D01*
X107464815Y-126764815D01*
X107472355Y-126758628D01*
X107480958Y-126754030D01*
X107490295Y-126751197D01*
X107502452Y-126750000D01*
X109150000Y-126750000D01*
X109154900Y-126749759D01*
X109174409Y-126747838D01*
X109184024Y-126745926D01*
X109202783Y-126740235D01*
X109211838Y-126736484D01*
X109229127Y-126727243D01*
X109237276Y-126721798D01*
X109252430Y-126709362D01*
X109259362Y-126702430D01*
X109271798Y-126687276D01*
X109277243Y-126679127D01*
X109286484Y-126661838D01*
X109290235Y-126652783D01*
X109295926Y-126634024D01*
X109297838Y-126624409D01*
X109299759Y-126604900D01*
X109300000Y-126600000D01*
X109300000Y-125100000D01*
X109299759Y-125095100D01*
X109297838Y-125075591D01*
X109295926Y-125065976D01*
X109290235Y-125047217D01*
X109286484Y-125038162D01*
X109277243Y-125020873D01*
X109271798Y-125012724D01*
X109259362Y-124997570D01*
X109252430Y-124990638D01*
X109237276Y-124978202D01*
X109229127Y-124972757D01*
X109211838Y-124963516D01*
X109202783Y-124959765D01*
X109184024Y-124954074D01*
X109174409Y-124952162D01*
X109154900Y-124950241D01*
X109150000Y-124950000D01*
X107502452Y-124950000D01*
X107490295Y-124948803D01*
X107480958Y-124945970D01*
X107472355Y-124941372D01*
X107464815Y-124935185D01*
X107458628Y-124927645D01*
X107454030Y-124919042D01*
X107451197Y-124909705D01*
X107450000Y-124897548D01*
X107450000Y-124802452D01*
X107451197Y-124790295D01*
X107454030Y-124780958D01*
X107458628Y-124772355D01*
X107464815Y-124764815D01*
X107472355Y-124758628D01*
X107480958Y-124754030D01*
X107490295Y-124751197D01*
X107502452Y-124750000D01*
X109150000Y-124750000D01*
X109154900Y-124749759D01*
X109174409Y-124747838D01*
X109184024Y-124745926D01*
X109202783Y-124740235D01*
X109211838Y-124736484D01*
X109229127Y-124727243D01*
X109237276Y-124721798D01*
X109252430Y-124709362D01*
X109259362Y-124702430D01*
X109271798Y-124687276D01*
X109277243Y-124679127D01*
X109286484Y-124661838D01*
X109290235Y-124652783D01*
X109295926Y-124634024D01*
X109297838Y-124624409D01*
X109299759Y-124604900D01*
X109300000Y-124600000D01*
X109300000Y-123452452D01*
X109301197Y-123440295D01*
X109304030Y-123430958D01*
X109308628Y-123422355D01*
X109314815Y-123414815D01*
X109322355Y-123408628D01*
X109330958Y-123404030D01*
X109340295Y-123401197D01*
X109352452Y-123400000D01*
X111197548Y-123400000D01*
X111209705Y-123401197D01*
X111209705Y-123401197D01*
G37*
X111209705Y-123401197D02*
X111219042Y-123404030D01*
X111227645Y-123408628D01*
X111235185Y-123414815D01*
X111241372Y-123422355D01*
X111245970Y-123430958D01*
X111248803Y-123440295D01*
X111250000Y-123452452D01*
X111250000Y-126897548D01*
X111248803Y-126909705D01*
X111245970Y-126919042D01*
X111241372Y-126927645D01*
X111235185Y-126935185D01*
X111227645Y-126941372D01*
X111219042Y-126945970D01*
X111209705Y-126948803D01*
X111197548Y-126950000D01*
X107502452Y-126950000D01*
X107490295Y-126948803D01*
X107480958Y-126945970D01*
X107472355Y-126941372D01*
X107464815Y-126935185D01*
X107458628Y-126927645D01*
X107454030Y-126919042D01*
X107451197Y-126909705D01*
X107450000Y-126897548D01*
X107450000Y-126802452D01*
X107451197Y-126790295D01*
X107454030Y-126780958D01*
X107458628Y-126772355D01*
X107464815Y-126764815D01*
X107472355Y-126758628D01*
X107480958Y-126754030D01*
X107490295Y-126751197D01*
X107502452Y-126750000D01*
X109150000Y-126750000D01*
X109154900Y-126749759D01*
X109174409Y-126747838D01*
X109184024Y-126745926D01*
X109202783Y-126740235D01*
X109211838Y-126736484D01*
X109229127Y-126727243D01*
X109237276Y-126721798D01*
X109252430Y-126709362D01*
X109259362Y-126702430D01*
X109271798Y-126687276D01*
X109277243Y-126679127D01*
X109286484Y-126661838D01*
X109290235Y-126652783D01*
X109295926Y-126634024D01*
X109297838Y-126624409D01*
X109299759Y-126604900D01*
X109300000Y-126600000D01*
X109300000Y-125100000D01*
X109299759Y-125095100D01*
X109297838Y-125075591D01*
X109295926Y-125065976D01*
X109290235Y-125047217D01*
X109286484Y-125038162D01*
X109277243Y-125020873D01*
X109271798Y-125012724D01*
X109259362Y-124997570D01*
X109252430Y-124990638D01*
X109237276Y-124978202D01*
X109229127Y-124972757D01*
X109211838Y-124963516D01*
X109202783Y-124959765D01*
X109184024Y-124954074D01*
X109174409Y-124952162D01*
X109154900Y-124950241D01*
X109150000Y-124950000D01*
X107502452Y-124950000D01*
X107490295Y-124948803D01*
X107480958Y-124945970D01*
X107472355Y-124941372D01*
X107464815Y-124935185D01*
X107458628Y-124927645D01*
X107454030Y-124919042D01*
X107451197Y-124909705D01*
X107450000Y-124897548D01*
X107450000Y-124802452D01*
X107451197Y-124790295D01*
X107454030Y-124780958D01*
X107458628Y-124772355D01*
X107464815Y-124764815D01*
X107472355Y-124758628D01*
X107480958Y-124754030D01*
X107490295Y-124751197D01*
X107502452Y-124750000D01*
X109150000Y-124750000D01*
X109154900Y-124749759D01*
X109174409Y-124747838D01*
X109184024Y-124745926D01*
X109202783Y-124740235D01*
X109211838Y-124736484D01*
X109229127Y-124727243D01*
X109237276Y-124721798D01*
X109252430Y-124709362D01*
X109259362Y-124702430D01*
X109271798Y-124687276D01*
X109277243Y-124679127D01*
X109286484Y-124661838D01*
X109290235Y-124652783D01*
X109295926Y-124634024D01*
X109297838Y-124624409D01*
X109299759Y-124604900D01*
X109300000Y-124600000D01*
X109300000Y-123452452D01*
X109301197Y-123440295D01*
X109304030Y-123430958D01*
X109308628Y-123422355D01*
X109314815Y-123414815D01*
X109322355Y-123408628D01*
X109330958Y-123404030D01*
X109340295Y-123401197D01*
X109352452Y-123400000D01*
X111197548Y-123400000D01*
X111209705Y-123401197D01*
G36*
X115759705Y-122151197D02*
X115769042Y-122154030D01*
X115777645Y-122158628D01*
X115785185Y-122164815D01*
X115791372Y-122172355D01*
X115795970Y-122180958D01*
X115798803Y-122190295D01*
X115800000Y-122202452D01*
X115800000Y-122997548D01*
X115798803Y-123009705D01*
X115795970Y-123019042D01*
X115791372Y-123027645D01*
X115785185Y-123035185D01*
X115777645Y-123041372D01*
X115769042Y-123045970D01*
X115759705Y-123048803D01*
X115747548Y-123050000D01*
X108950000Y-123050000D01*
X108945100Y-123050241D01*
X108925591Y-123052162D01*
X108915976Y-123054074D01*
X108897217Y-123059765D01*
X108888162Y-123063516D01*
X108870873Y-123072757D01*
X108862724Y-123078202D01*
X108847570Y-123090638D01*
X108840638Y-123097570D01*
X108828202Y-123112724D01*
X108822757Y-123120873D01*
X108813516Y-123138162D01*
X108809765Y-123147217D01*
X108804074Y-123165976D01*
X108802162Y-123175591D01*
X108800241Y-123195100D01*
X108800000Y-123200000D01*
X108800000Y-123997548D01*
X108798803Y-124009705D01*
X108795970Y-124019042D01*
X108794312Y-124022144D01*
X107455688Y-124022144D01*
X107454030Y-124019042D01*
X107451197Y-124009705D01*
X107450000Y-123997548D01*
X107450000Y-122202452D01*
X107451197Y-122190295D01*
X107454030Y-122180958D01*
X107458628Y-122172355D01*
X107464815Y-122164815D01*
X107472355Y-122158628D01*
X107480958Y-122154030D01*
X107490295Y-122151197D01*
X107502452Y-122150000D01*
X115747548Y-122150000D01*
X115759705Y-122151197D01*
X115759705Y-122151197D01*
G37*
X115759705Y-122151197D02*
X115769042Y-122154030D01*
X115777645Y-122158628D01*
X115785185Y-122164815D01*
X115791372Y-122172355D01*
X115795970Y-122180958D01*
X115798803Y-122190295D01*
X115800000Y-122202452D01*
X115800000Y-122997548D01*
X115798803Y-123009705D01*
X115795970Y-123019042D01*
X115791372Y-123027645D01*
X115785185Y-123035185D01*
X115777645Y-123041372D01*
X115769042Y-123045970D01*
X115759705Y-123048803D01*
X115747548Y-123050000D01*
X108950000Y-123050000D01*
X108945100Y-123050241D01*
X108925591Y-123052162D01*
X108915976Y-123054074D01*
X108897217Y-123059765D01*
X108888162Y-123063516D01*
X108870873Y-123072757D01*
X108862724Y-123078202D01*
X108847570Y-123090638D01*
X108840638Y-123097570D01*
X108828202Y-123112724D01*
X108822757Y-123120873D01*
X108813516Y-123138162D01*
X108809765Y-123147217D01*
X108804074Y-123165976D01*
X108802162Y-123175591D01*
X108800241Y-123195100D01*
X108800000Y-123200000D01*
X108800000Y-123997548D01*
X108798803Y-124009705D01*
X108795970Y-124019042D01*
X108794312Y-124022144D01*
X107455688Y-124022144D01*
X107454030Y-124019042D01*
X107451197Y-124009705D01*
X107450000Y-123997548D01*
X107450000Y-122202452D01*
X107451197Y-122190295D01*
X107454030Y-122180958D01*
X107458628Y-122172355D01*
X107464815Y-122164815D01*
X107472355Y-122158628D01*
X107480958Y-122154030D01*
X107490295Y-122151197D01*
X107502452Y-122150000D01*
X115747548Y-122150000D01*
X115759705Y-122151197D01*
G36*
X123209705Y-117351197D02*
X123219042Y-117354030D01*
X123227645Y-117358628D01*
X123235185Y-117364815D01*
X123241372Y-117372355D01*
X123245970Y-117380958D01*
X123248803Y-117390295D01*
X123250000Y-117402452D01*
X123250000Y-132797548D01*
X123248803Y-132809705D01*
X123245970Y-132819042D01*
X123241372Y-132827645D01*
X123235185Y-132835185D01*
X123227645Y-132841372D01*
X123219042Y-132845970D01*
X123209705Y-132848803D01*
X123197548Y-132850000D01*
X115702452Y-132850000D01*
X115690295Y-132848803D01*
X115680958Y-132845970D01*
X115672355Y-132841372D01*
X115664815Y-132835185D01*
X115658628Y-132827645D01*
X115654030Y-132819042D01*
X115651197Y-132809705D01*
X115650000Y-132797548D01*
X115650000Y-128140107D01*
X115822373Y-128140107D01*
X115839260Y-128232115D01*
X115873696Y-128319091D01*
X115885244Y-128337010D01*
X115879185Y-128350451D01*
X115872144Y-128400000D01*
X115872144Y-129300000D01*
X115874392Y-129328187D01*
X115884854Y-129361972D01*
X115879979Y-129369092D01*
X115843128Y-129455072D01*
X115823679Y-129546572D01*
X115822373Y-129640107D01*
X115839260Y-129732115D01*
X115873696Y-129819091D01*
X115924369Y-129897721D01*
X115989351Y-129965011D01*
X116066165Y-130018399D01*
X116151886Y-130055849D01*
X116243248Y-130075936D01*
X116336772Y-130077895D01*
X116428895Y-130061652D01*
X116516109Y-130027824D01*
X116595091Y-129977700D01*
X116662834Y-129913190D01*
X116716756Y-129836750D01*
X116754804Y-129751293D01*
X116775529Y-129660073D01*
X116777020Y-129553228D01*
X116758851Y-129461465D01*
X116723204Y-129374979D01*
X116714951Y-129362558D01*
X116720815Y-129349549D01*
X116727856Y-129300000D01*
X116727856Y-128400000D01*
X116725608Y-128371813D01*
X116715362Y-128338727D01*
X116716756Y-128336750D01*
X116754804Y-128251293D01*
X116775529Y-128160073D01*
X116777020Y-128053228D01*
X116758851Y-127961465D01*
X116723204Y-127874979D01*
X116671437Y-127797063D01*
X116605522Y-127730687D01*
X116527970Y-127678377D01*
X116441735Y-127642127D01*
X116350101Y-127623318D01*
X116256559Y-127622665D01*
X116164671Y-127640193D01*
X116077939Y-127675236D01*
X115999664Y-127726457D01*
X115932829Y-127791907D01*
X115879979Y-127869092D01*
X115843128Y-127955072D01*
X115823679Y-128046572D01*
X115822373Y-128140107D01*
X115650000Y-128140107D01*
X115650000Y-127316747D01*
X115678895Y-127311652D01*
X115766109Y-127277824D01*
X115845091Y-127227700D01*
X115912834Y-127163190D01*
X115966756Y-127086750D01*
X116004804Y-127001293D01*
X116025529Y-126910073D01*
X116027020Y-126803228D01*
X116008851Y-126711465D01*
X115973204Y-126624979D01*
X115921437Y-126547063D01*
X115855522Y-126480687D01*
X115777970Y-126428377D01*
X115691735Y-126392127D01*
X115650000Y-126383560D01*
X115650000Y-124923800D01*
X115649759Y-124918900D01*
X115647838Y-124899391D01*
X115645926Y-124889776D01*
X115640235Y-124871017D01*
X115636484Y-124861962D01*
X115627243Y-124844673D01*
X115621798Y-124836524D01*
X115609362Y-124821370D01*
X115602430Y-124814438D01*
X115587276Y-124802002D01*
X115579127Y-124796557D01*
X115561838Y-124787316D01*
X115552783Y-124783565D01*
X115534024Y-124777874D01*
X115524409Y-124775962D01*
X115504900Y-124774041D01*
X115500000Y-124773800D01*
X115186654Y-124773800D01*
X115175000Y-124772144D01*
X114688782Y-124772144D01*
X114680958Y-124769770D01*
X114672355Y-124765172D01*
X114664815Y-124758985D01*
X114658628Y-124751445D01*
X114654030Y-124742842D01*
X114651197Y-124733505D01*
X114650000Y-124721348D01*
X114650000Y-124202452D01*
X114651197Y-124190295D01*
X114654030Y-124180958D01*
X114658628Y-124172355D01*
X114664815Y-124164815D01*
X114672355Y-124158628D01*
X114680958Y-124154030D01*
X114690295Y-124151197D01*
X114702452Y-124150000D01*
X116000000Y-124150000D01*
X116004900Y-124149759D01*
X116024409Y-124147838D01*
X116034024Y-124145926D01*
X116052783Y-124140235D01*
X116061838Y-124136484D01*
X116079127Y-124127243D01*
X116087276Y-124121798D01*
X116102430Y-124109362D01*
X116109362Y-124102430D01*
X116121798Y-124087276D01*
X116127243Y-124079127D01*
X116136484Y-124061838D01*
X116140235Y-124052783D01*
X116145926Y-124034024D01*
X116147838Y-124024409D01*
X116149759Y-124004900D01*
X116150000Y-124000000D01*
X116150000Y-121177945D01*
X117871782Y-121177945D01*
X117904599Y-121356752D01*
X117971522Y-121525780D01*
X118070001Y-121678590D01*
X118196286Y-121809362D01*
X118345566Y-121913114D01*
X118512155Y-121985895D01*
X118689708Y-122024932D01*
X118871463Y-122028740D01*
X119050495Y-121997171D01*
X119208711Y-121935803D01*
X119498000Y-122225093D01*
X119498000Y-123228087D01*
X119432829Y-123291907D01*
X119379979Y-123369092D01*
X119343128Y-123455072D01*
X119323679Y-123546572D01*
X119322373Y-123640107D01*
X119339260Y-123732115D01*
X119373696Y-123819091D01*
X119387264Y-123840144D01*
X119374752Y-123854824D01*
X119354185Y-123900451D01*
X119347144Y-123950000D01*
X119347144Y-124300000D01*
X119349392Y-124328187D01*
X119364197Y-124375994D01*
X119372226Y-124388179D01*
X119367004Y-124392464D01*
X119342464Y-124417004D01*
X119330028Y-124432158D01*
X119310752Y-124461007D01*
X119301511Y-124478296D01*
X119288235Y-124510347D01*
X119282544Y-124529106D01*
X119275773Y-124563146D01*
X119273852Y-124582655D01*
X119273000Y-124600000D01*
X119273000Y-126200000D01*
X119273852Y-126217345D01*
X119275773Y-126236854D01*
X119282544Y-126270894D01*
X119288235Y-126289653D01*
X119301511Y-126321704D01*
X119310752Y-126338993D01*
X119330028Y-126367842D01*
X119342464Y-126382996D01*
X119367004Y-126407536D01*
X119382158Y-126419972D01*
X119411007Y-126439248D01*
X119428296Y-126448489D01*
X119460347Y-126461765D01*
X119479106Y-126467456D01*
X119513146Y-126474227D01*
X119532655Y-126476148D01*
X119550000Y-126477000D01*
X120594044Y-126477000D01*
X120636772Y-126477895D01*
X120641848Y-126477000D01*
X120900000Y-126477000D01*
X120917345Y-126476148D01*
X120936854Y-126474227D01*
X120970894Y-126467456D01*
X120989653Y-126461765D01*
X121021704Y-126448489D01*
X121038993Y-126439248D01*
X121067842Y-126419972D01*
X121082996Y-126407536D01*
X121107536Y-126382996D01*
X121119972Y-126367842D01*
X121139248Y-126338993D01*
X121148489Y-126321704D01*
X121161765Y-126289653D01*
X121167456Y-126270894D01*
X121174227Y-126236854D01*
X121176148Y-126217345D01*
X121177000Y-126200000D01*
X121177000Y-124600000D01*
X121176148Y-124582655D01*
X121174227Y-124563146D01*
X121167456Y-124529106D01*
X121161765Y-124510347D01*
X121148489Y-124478296D01*
X121139248Y-124461007D01*
X121119972Y-124432158D01*
X121107536Y-124417004D01*
X121082996Y-124392464D01*
X121067842Y-124380028D01*
X121038993Y-124360752D01*
X121021704Y-124351511D01*
X120989653Y-124338235D01*
X120970894Y-124332544D01*
X120936854Y-124325773D01*
X120917345Y-124323852D01*
X120900000Y-124323000D01*
X120604548Y-124323000D01*
X120556559Y-124322665D01*
X120554803Y-124323000D01*
X120349588Y-124323000D01*
X120352856Y-124300000D01*
X120352856Y-123950000D01*
X120350608Y-123921813D01*
X120335803Y-123874006D01*
X120308266Y-123832216D01*
X120270176Y-123799752D01*
X120239404Y-123785881D01*
X120254804Y-123751293D01*
X120275529Y-123660073D01*
X120277020Y-123553228D01*
X120258851Y-123461465D01*
X120223204Y-123374979D01*
X120171437Y-123297063D01*
X120105522Y-123230687D01*
X120102000Y-123228311D01*
X120102000Y-122100000D01*
X120099284Y-122072304D01*
X120096847Y-122044447D01*
X120096403Y-122042917D01*
X120096248Y-122041341D01*
X120088200Y-122014683D01*
X120080403Y-121987847D01*
X120079672Y-121986436D01*
X120079213Y-121984917D01*
X120066138Y-121960327D01*
X120053279Y-121935519D01*
X120052286Y-121934275D01*
X120051542Y-121932876D01*
X120033959Y-121911317D01*
X120016508Y-121889456D01*
X120014324Y-121887242D01*
X120014290Y-121887200D01*
X120014251Y-121887168D01*
X120013547Y-121886454D01*
X119633726Y-121506633D01*
X119683864Y-121394022D01*
X119724140Y-121216746D01*
X119727039Y-121009103D01*
X119691729Y-120830771D01*
X119622452Y-120662694D01*
X119521849Y-120511274D01*
X119393751Y-120382278D01*
X119243037Y-120280621D01*
X119075448Y-120210173D01*
X118897367Y-120173618D01*
X118715577Y-120172349D01*
X118537003Y-120206413D01*
X118368447Y-120274515D01*
X118216328Y-120374058D01*
X118086441Y-120501253D01*
X117983733Y-120651254D01*
X117912117Y-120818347D01*
X117874320Y-120996168D01*
X117871782Y-121177945D01*
X116150000Y-121177945D01*
X116150000Y-117402452D01*
X116151197Y-117390295D01*
X116154030Y-117380958D01*
X116158628Y-117372355D01*
X116164815Y-117364815D01*
X116172355Y-117358628D01*
X116180958Y-117354030D01*
X116190295Y-117351197D01*
X116202452Y-117350000D01*
X123197548Y-117350000D01*
X123209705Y-117351197D01*
X123209705Y-117351197D01*
G37*
X123209705Y-117351197D02*
X123219042Y-117354030D01*
X123227645Y-117358628D01*
X123235185Y-117364815D01*
X123241372Y-117372355D01*
X123245970Y-117380958D01*
X123248803Y-117390295D01*
X123250000Y-117402452D01*
X123250000Y-132797548D01*
X123248803Y-132809705D01*
X123245970Y-132819042D01*
X123241372Y-132827645D01*
X123235185Y-132835185D01*
X123227645Y-132841372D01*
X123219042Y-132845970D01*
X123209705Y-132848803D01*
X123197548Y-132850000D01*
X115702452Y-132850000D01*
X115690295Y-132848803D01*
X115680958Y-132845970D01*
X115672355Y-132841372D01*
X115664815Y-132835185D01*
X115658628Y-132827645D01*
X115654030Y-132819042D01*
X115651197Y-132809705D01*
X115650000Y-132797548D01*
X115650000Y-128140107D01*
X115822373Y-128140107D01*
X115839260Y-128232115D01*
X115873696Y-128319091D01*
X115885244Y-128337010D01*
X115879185Y-128350451D01*
X115872144Y-128400000D01*
X115872144Y-129300000D01*
X115874392Y-129328187D01*
X115884854Y-129361972D01*
X115879979Y-129369092D01*
X115843128Y-129455072D01*
X115823679Y-129546572D01*
X115822373Y-129640107D01*
X115839260Y-129732115D01*
X115873696Y-129819091D01*
X115924369Y-129897721D01*
X115989351Y-129965011D01*
X116066165Y-130018399D01*
X116151886Y-130055849D01*
X116243248Y-130075936D01*
X116336772Y-130077895D01*
X116428895Y-130061652D01*
X116516109Y-130027824D01*
X116595091Y-129977700D01*
X116662834Y-129913190D01*
X116716756Y-129836750D01*
X116754804Y-129751293D01*
X116775529Y-129660073D01*
X116777020Y-129553228D01*
X116758851Y-129461465D01*
X116723204Y-129374979D01*
X116714951Y-129362558D01*
X116720815Y-129349549D01*
X116727856Y-129300000D01*
X116727856Y-128400000D01*
X116725608Y-128371813D01*
X116715362Y-128338727D01*
X116716756Y-128336750D01*
X116754804Y-128251293D01*
X116775529Y-128160073D01*
X116777020Y-128053228D01*
X116758851Y-127961465D01*
X116723204Y-127874979D01*
X116671437Y-127797063D01*
X116605522Y-127730687D01*
X116527970Y-127678377D01*
X116441735Y-127642127D01*
X116350101Y-127623318D01*
X116256559Y-127622665D01*
X116164671Y-127640193D01*
X116077939Y-127675236D01*
X115999664Y-127726457D01*
X115932829Y-127791907D01*
X115879979Y-127869092D01*
X115843128Y-127955072D01*
X115823679Y-128046572D01*
X115822373Y-128140107D01*
X115650000Y-128140107D01*
X115650000Y-127316747D01*
X115678895Y-127311652D01*
X115766109Y-127277824D01*
X115845091Y-127227700D01*
X115912834Y-127163190D01*
X115966756Y-127086750D01*
X116004804Y-127001293D01*
X116025529Y-126910073D01*
X116027020Y-126803228D01*
X116008851Y-126711465D01*
X115973204Y-126624979D01*
X115921437Y-126547063D01*
X115855522Y-126480687D01*
X115777970Y-126428377D01*
X115691735Y-126392127D01*
X115650000Y-126383560D01*
X115650000Y-124923800D01*
X115649759Y-124918900D01*
X115647838Y-124899391D01*
X115645926Y-124889776D01*
X115640235Y-124871017D01*
X115636484Y-124861962D01*
X115627243Y-124844673D01*
X115621798Y-124836524D01*
X115609362Y-124821370D01*
X115602430Y-124814438D01*
X115587276Y-124802002D01*
X115579127Y-124796557D01*
X115561838Y-124787316D01*
X115552783Y-124783565D01*
X115534024Y-124777874D01*
X115524409Y-124775962D01*
X115504900Y-124774041D01*
X115500000Y-124773800D01*
X115186654Y-124773800D01*
X115175000Y-124772144D01*
X114688782Y-124772144D01*
X114680958Y-124769770D01*
X114672355Y-124765172D01*
X114664815Y-124758985D01*
X114658628Y-124751445D01*
X114654030Y-124742842D01*
X114651197Y-124733505D01*
X114650000Y-124721348D01*
X114650000Y-124202452D01*
X114651197Y-124190295D01*
X114654030Y-124180958D01*
X114658628Y-124172355D01*
X114664815Y-124164815D01*
X114672355Y-124158628D01*
X114680958Y-124154030D01*
X114690295Y-124151197D01*
X114702452Y-124150000D01*
X116000000Y-124150000D01*
X116004900Y-124149759D01*
X116024409Y-124147838D01*
X116034024Y-124145926D01*
X116052783Y-124140235D01*
X116061838Y-124136484D01*
X116079127Y-124127243D01*
X116087276Y-124121798D01*
X116102430Y-124109362D01*
X116109362Y-124102430D01*
X116121798Y-124087276D01*
X116127243Y-124079127D01*
X116136484Y-124061838D01*
X116140235Y-124052783D01*
X116145926Y-124034024D01*
X116147838Y-124024409D01*
X116149759Y-124004900D01*
X116150000Y-124000000D01*
X116150000Y-121177945D01*
X117871782Y-121177945D01*
X117904599Y-121356752D01*
X117971522Y-121525780D01*
X118070001Y-121678590D01*
X118196286Y-121809362D01*
X118345566Y-121913114D01*
X118512155Y-121985895D01*
X118689708Y-122024932D01*
X118871463Y-122028740D01*
X119050495Y-121997171D01*
X119208711Y-121935803D01*
X119498000Y-122225093D01*
X119498000Y-123228087D01*
X119432829Y-123291907D01*
X119379979Y-123369092D01*
X119343128Y-123455072D01*
X119323679Y-123546572D01*
X119322373Y-123640107D01*
X119339260Y-123732115D01*
X119373696Y-123819091D01*
X119387264Y-123840144D01*
X119374752Y-123854824D01*
X119354185Y-123900451D01*
X119347144Y-123950000D01*
X119347144Y-124300000D01*
X119349392Y-124328187D01*
X119364197Y-124375994D01*
X119372226Y-124388179D01*
X119367004Y-124392464D01*
X119342464Y-124417004D01*
X119330028Y-124432158D01*
X119310752Y-124461007D01*
X119301511Y-124478296D01*
X119288235Y-124510347D01*
X119282544Y-124529106D01*
X119275773Y-124563146D01*
X119273852Y-124582655D01*
X119273000Y-124600000D01*
X119273000Y-126200000D01*
X119273852Y-126217345D01*
X119275773Y-126236854D01*
X119282544Y-126270894D01*
X119288235Y-126289653D01*
X119301511Y-126321704D01*
X119310752Y-126338993D01*
X119330028Y-126367842D01*
X119342464Y-126382996D01*
X119367004Y-126407536D01*
X119382158Y-126419972D01*
X119411007Y-126439248D01*
X119428296Y-126448489D01*
X119460347Y-126461765D01*
X119479106Y-126467456D01*
X119513146Y-126474227D01*
X119532655Y-126476148D01*
X119550000Y-126477000D01*
X120594044Y-126477000D01*
X120636772Y-126477895D01*
X120641848Y-126477000D01*
X120900000Y-126477000D01*
X120917345Y-126476148D01*
X120936854Y-126474227D01*
X120970894Y-126467456D01*
X120989653Y-126461765D01*
X121021704Y-126448489D01*
X121038993Y-126439248D01*
X121067842Y-126419972D01*
X121082996Y-126407536D01*
X121107536Y-126382996D01*
X121119972Y-126367842D01*
X121139248Y-126338993D01*
X121148489Y-126321704D01*
X121161765Y-126289653D01*
X121167456Y-126270894D01*
X121174227Y-126236854D01*
X121176148Y-126217345D01*
X121177000Y-126200000D01*
X121177000Y-124600000D01*
X121176148Y-124582655D01*
X121174227Y-124563146D01*
X121167456Y-124529106D01*
X121161765Y-124510347D01*
X121148489Y-124478296D01*
X121139248Y-124461007D01*
X121119972Y-124432158D01*
X121107536Y-124417004D01*
X121082996Y-124392464D01*
X121067842Y-124380028D01*
X121038993Y-124360752D01*
X121021704Y-124351511D01*
X120989653Y-124338235D01*
X120970894Y-124332544D01*
X120936854Y-124325773D01*
X120917345Y-124323852D01*
X120900000Y-124323000D01*
X120604548Y-124323000D01*
X120556559Y-124322665D01*
X120554803Y-124323000D01*
X120349588Y-124323000D01*
X120352856Y-124300000D01*
X120352856Y-123950000D01*
X120350608Y-123921813D01*
X120335803Y-123874006D01*
X120308266Y-123832216D01*
X120270176Y-123799752D01*
X120239404Y-123785881D01*
X120254804Y-123751293D01*
X120275529Y-123660073D01*
X120277020Y-123553228D01*
X120258851Y-123461465D01*
X120223204Y-123374979D01*
X120171437Y-123297063D01*
X120105522Y-123230687D01*
X120102000Y-123228311D01*
X120102000Y-122100000D01*
X120099284Y-122072304D01*
X120096847Y-122044447D01*
X120096403Y-122042917D01*
X120096248Y-122041341D01*
X120088200Y-122014683D01*
X120080403Y-121987847D01*
X120079672Y-121986436D01*
X120079213Y-121984917D01*
X120066138Y-121960327D01*
X120053279Y-121935519D01*
X120052286Y-121934275D01*
X120051542Y-121932876D01*
X120033959Y-121911317D01*
X120016508Y-121889456D01*
X120014324Y-121887242D01*
X120014290Y-121887200D01*
X120014251Y-121887168D01*
X120013547Y-121886454D01*
X119633726Y-121506633D01*
X119683864Y-121394022D01*
X119724140Y-121216746D01*
X119727039Y-121009103D01*
X119691729Y-120830771D01*
X119622452Y-120662694D01*
X119521849Y-120511274D01*
X119393751Y-120382278D01*
X119243037Y-120280621D01*
X119075448Y-120210173D01*
X118897367Y-120173618D01*
X118715577Y-120172349D01*
X118537003Y-120206413D01*
X118368447Y-120274515D01*
X118216328Y-120374058D01*
X118086441Y-120501253D01*
X117983733Y-120651254D01*
X117912117Y-120818347D01*
X117874320Y-120996168D01*
X117871782Y-121177945D01*
X116150000Y-121177945D01*
X116150000Y-117402452D01*
X116151197Y-117390295D01*
X116154030Y-117380958D01*
X116158628Y-117372355D01*
X116164815Y-117364815D01*
X116172355Y-117358628D01*
X116180958Y-117354030D01*
X116190295Y-117351197D01*
X116202452Y-117350000D01*
X123197548Y-117350000D01*
X123209705Y-117351197D01*
M02*
